Vancouver street trees analysis with Tidyverse
…
5.2. Tree Summary by Species

# Grouped summary by species 
trees_summary_sp <- trees_clean %>% 
  group_by(common_name) %>% 
  summarize(diameter_mean = mean(diameter_cm),
            diameter_min = min(diameter_cm),
            diameter_max = max(diameter_cm),
            diameter_sd = sd(diameter_cm),
            n_obs = n())

trees_summary_sp

# A tibble: 642 × 6
   common_name         diameter_mean diameter_min diameter_max diameter_sd n_obs
   <chr>                       <dbl>        <dbl>        <dbl>       <dbl> <int>
 1 ACCOLADE CHERRY             52.8          7.62        107.       21.6      60
 2 AKEBONO FLOWERING …         19.8          1.27        168.       20.2    2380
 3 ALDER SPECIES               44.2          7.62         67.3      19.7      14
 4 ALDERLEAFED MOUNTA…         12.1          5.08         50.2       5.89    171
 5 ALIA'S MAGNOLIA             13.5         12.7          14.0       0.733     3
 6 ALLEGHENY SERVICEB…          7.41         3.81         12.7       3.47      6
 7 ALLGOLD EUROPEAN A…          9.69         5.08         29.2       4.55     78
 8 ALMIRA NORWAY MAPLE         44.2         12.7          73.7      21.0       9
 9 ALPINE FIR                  10.2         10.2          10.2      NA         1
10 AMANOGAWA JAPANESE…         22.6          7.62         66.0      15.6      67
# ℹ 632 more rows
…
